Survival - plots and statistical analysis
…
Past versions of “Age beta and coeffiecients for all lines as replicates-1.png”

Version

Author

Date

130ff5e

mcorbal

2021-08-10

# A tibble: 72 × 14
   Line  .y.      group1    group2    n1    n2 statistic        p   p.adj p.adj.signif
   <fct> <chr>    <chr>     <chr>  <int> <int>     <dbl>    <dbl>   <dbl> <chr>       
 1 21    log_BLUD Female_10 Femal…    23    25         0 3.16e- 9 2.28e-7 ****        
 2 21    log_BLUD Female_10 Male_…    23    26       447 3   e- 3 2.16e-1 ns          
 3 21    log_BLUD Female_10 Male_…    23    20         0 2.29e- 8 1.65e-6 ****        
 4 21    log_BLUD Female_35 Male_…    25    26       650 9.69e-10 6.98e-8 ****        
 5 21    log_BLUD Female_35 Male_…    25    20       449 5.78e- 6 4.16e-4 ***         
 6 21    log_BLUD Male_10   Male_…    26    20        11 6.95e-11 5.00e-9 ****        
 7 59    log_BLUD Female_10 Femal…    26    25       124 8.5 e- 5 6.12e-3 **          
 8 59    log_BLUD Female_10 Male_…    26    18       102 2   e- 3 1.44e-1 ns          
 9 59    log_BLUD Female_10 Male_…    26    25       184 7   e- 3 5.04e-1 ns          
10 59    log_BLUD Female_35 Male_…    25    18       223 9.71e- 1 1   e+0 ns          
# … with 62 more rows, and 4 more variables: y.position <dbl>,
#   groups <named list>, xmin <dbl>, xmax <dbl>
…
